[
  {
    "name": "Mpow H5",
    "price": "49.99",
    "url": "https://images-na.ssl-images-amazon.com/images/I/71WE76nqSPL._SL1500_.jpg",
    "article": "11111",
    "color": "black"
  },
  {
    "name": "Generic NIA X3",
    "price": "25.00",
    "url": "https://images-na.ssl-images-amazon.com/images/I/41ySef8ESPL.jpg",
    "article": "22222",
    "color": "black"
  },
  {
    "name": "JBL T500BT On-Ear",
    "price": "49.50",
    "url": "https://images-na.ssl-images-amazon.com/images/I/61NnCxT7tRL._SL1500_.jpg",
    "article": "33333",
    "color": "white"
  },
  {
    "name": "Philips SHL3060RD/27 Headphones",
    "price": "19.99",
    "url": "https://images-na.ssl-images-amazon.com/images/I/41oRgiaGjuL.jpg",
    "article": "44444",
    "color": "red"
  },
  {
    "name": "Koss UR20",
    "price": "15.50",
    "url": "https://images-na.ssl-images-amazon.com/images/I/618uMQ6Ul-L._SL1500_.jpg",
    "article": "55555",
    "color": "black"
  },
  {
    "name": "Artix RS7 Sports",
    "price": "16.99",
    "url": "https://images-na.ssl-images-amazon.com/images/I/81CoKjD3tpL._SL1500_.jpg",
    "article": "66666",
    "color": "blue"
  },
  {
    "name": "Panasonic Retro Noise RP-HTX90N-W",
    "price": "100.33",
    "url": "https://images-na.ssl-images-amazon.com/images/I/61Xzbpy4y6L._SL1500_.jpg",
    "article": "77777",
    "color": "white"
  },
  {
    "name": "Panasonic Noise Cancelling RP-HD805N-T",
    "price": "195.45",
    "url": "https://images-na.ssl-images-amazon.com/images/I/71OT0ZkFotL._SL1500_.jpg",
    "article": "88888",
    "color": "brown"
  },
  {
    "name": "Sony Noise Cancelling Headphones WH1000XM3",
    "price": "298.00",
    "url": "https://images-na.ssl-images-amazon.com/images/I/51IdLe-%2B6kL._SL1500_.jpg",
    "article": "99999",
    "color": "black"
  },
  {
    "name": "Mpow CH6 Kids Headphones",
    "price": "29.99",
    "url": "https://images-na.ssl-images-amazon.com/images/I/61oVUtl66XL._SL1500_.jpg",
    "article": "111110",
    "color": "blue"
  }
]